803802 871921 525
641496 1598 509
11977 567784 470
186689 973494 525
570126 238304 470
439157 231394 449
677527 894795 525
425274 412476 418
104903 886388 525
674808 971237 525
584240 436394 470
141957 860744 525
319127 428083 449
604861 345148 470
268105 324232 407
980487 279288 525
458343 311191 449
502907 745019 509
388941 657826 509
523128 440302 470
486019 735582 509
827231 556790 509
15903 709087 509
162576 834111 509
461296 804803 509
108827 779459 509
115761 52275 354
211098 738596 509
20102 613427 470
162633 22786 383
142849 451797 449
555894 481913 470
541797 363048 470
178285 47636 383
939810 292071 525
792158 507601 509
541012 533860 408
935222 297924 525
511835 209007 449
320664 770616 509
760792 870332 525
118493 543025 470
619444 786407 509
367618 899225 525
862339 466116 525
118358 566067 470
48293 143034 375
639055 921844 525
523629 731402 509
811243 442158 509
599983 465049 470
168460 932637 525
888553 530533 525
524348 960315 525
389194 228716 443
997761 72972 525
424848 507937 444
387096 820083 509
90818 317047 443
446400 41399 449
767038 532556 509
234164 95034 443
694800 249044 509
167597 284614 443
997245 975595 427
690324 283898 509
41290 568020 470
591439 49834 470
991611 654445 525
813189 153410 509
861825 860577 326
532577 822355 509
364953 508933 449
47896 917333 525
443876 169418 449
873780 161520 525
938680 878020 476
670974 547078 509
24731 258199 443
612484 369455 470
899262 894908 370
686884 461991 509
338033 136207 443
467376 522188 470
290605 710062 509
312830 557543 470
290287 459875 449
971642 825377 525
922007 764912 525
308676 671973 509
635793 938174 525
956612 549236 525
28681 942066 525
741486 263989 509
56027 915534 525
615895 4688 470
914011 272691 525
744467 702340 504
998112 528303 525
93738 70444 351
629846 53445 509
710360 839128 525
754543 435415 509
395184 500117 449
694001 779111 504
248453 152707 443
755429 789461 468
532200 916329 525
971727 637507 525
436545 918254 525
678382 252299 509
827917 541271 509
440613 496909 444
768862 330974 509
427341 574964 470
337374 278080 389
705006 198221 509
341746 567871 470
178408 511997 470
280555 604701 470
113782 736981 509
69462 938722 525
272947 131983 443
704182 36413 509
797552 127941 509
202229 87926 383
124490 666138 509
743504 453763 509
896029 138370 525
556818 575394 421
177004 384989 443
634548 931268 525
293002 547924 470
407791 531869 470
943145 433931 525
392409 90131 443
558074 944723 525
143091 21706 375
573172 489625 470
133148 522354 470
104950 176774 383
280150 349462 441
966110 391365 525
937726 821777 525
357932 724395 509
861865 585579 525
875607 638552 525
57582 747682 509
472977 844267 525
425535 565231 470
750620 729084 424
88835 149589 375
393711 129294 443
577389 911910 525
35121 377198 443
80762 899627 525
152957 693371 509
203003 259733 443
943365 938397 507
754490 764122 380
468327 464627 413
736389 714173 424
256449 672678 509
521447 984760 525
679305 145822 509
433489 223551 449
343141 565439 470
257314 873731 525
541225 652901 509
907814 314790 525
167938 248143 443
951363 512803 525
453541 306168 449
175093 578694 470
147243 889366 525
740554 629877 504
945059 626815 525
845107 814040 525
928377 263137 525
442460 798200 509
932359 870328 476
786782 319572 509
249300 449369 449
296524 703874 509
389110 525924 470
889926 517346 525
842394 362255 525
491456 340254 449
248749 474125 449
297135 629239 509
69901 704863 509
913860 452477 525
588648 681002 509
292913 996734 525
483067 626080 470
551444 304550 470
459174 849084 525
138045 642292 509
422236 875018 525
168750 44246 383
345877 282773 389
383782 834517 509
583191 966909 525
245395 985911 525
588769 232850 470
399958 324301 441
244268 284406 407
773317 571520 509
110228 20057 354
512825 416800 470
742330 595012 509
773711 957150 525
312694 980360 525
135169 673852 509
301280 471602 449
456421 453362 338
601936 841871 525
384494 526309 470
737983 864303 525
837719 925639 525
17726 104010 351
699566 253388 509
939888 554289 525
488643 849140 525
89176 274979 443
585302 735426 509
684201 560932 509
563302 922827 525
428126 853489 525
910854 236405 525
160327 423426 449
521427 956648 525
57569 335761 443
809954 11546 509
515456 252956 470
853052 453333 525
790637 922124 525
788647 41742 509
732043 604910 509
823306 677273 504
292986 741999 509
866645 310842 525
69795 156305 383
80701 715305 509
769339 629689 504
99977 992838 525
990841 274075 525
192376 181727 360
272468 586930 470
267740 277599 407
360421 269849 441
866513 518976 525
747638 10974 509
278108 61143 443
704707 225381 509
415202 764749 509
946104 43539 525
412992 145650 449
618061 527099 452
557774 10160 470
334245 312584 384
598614 16311 470
312170 908419 525
701536 157935 509
148745 328261 443
958931 367425 525
882989 547719 525
830149 159384 509
14616 882721 525
752929 268816 509
193691 756430 509
741793 928363 525
259780 373208 441
429640 184986 449
109700 491725 449
227722 105239 386
315130 43964 443
414922 417003 387
573699 637611 509
878816 128318 525
273092 226702 443
836116 805456 450
455926 411926 418
382258 266150 441
699730 501005 509
784158 711438 468
808976 95593 509
544721 688650 509
921486 676429 525
737167 777941 468
140106 822268 509
