68104 613828 470
79796 973397 525
142373 262632 443
737998 512526 509
37057 209289 383
782200 584218 509
306886 164778 443
404090 648620 509
542187 196936 470
237521 329413 407
559284 474949 470
172304 171034 334
795521 963899 525
744042 531817 509
492253 337805 449
70052 843364 525
365897 590386 470
355990 853202 525
970770 925651 507
250551 280055 407
619956 886441 525
408164 582056 470
48874 29796 324
979897 216689 525
434738 578454 470
884298 889559 445
668977 250924 509
509923 66295 449
555885 279178 470
116617 734929 509
968276 702784 525
881707 859642 432
777250 698611 504
772049 446139 509
66105 320768 443
189364 822099 509
392377 883144 525
945127 310169 525
803693 435185 509
528146 205839 470
236277 878032 525
991231 550785 525
566643 835136 509
434702 197232 449
741704 644088 504
958530 287986 525
134215 507901 449
487879 803959 509
878971 34409 525
44411 570965 470
352586 166523 443
169985 312488 443
942735 703736 525
28517 834813 509
887925 853666 445
848742 769106 525
700728 409585 509
31653 400192 443
37884 527287 470
812673 601407 509
232952 943548 525
442345 350559 449
10363 145869 375
436931 157089 449
451038 608874 470
138336 967488 525
255671 363922 441
190454 595488 470
691329 975176 525
280632 12803 443
206721 233570 443
124722 728811 509
985339 223682 525
245156 364992 441
297516 258061 407
743191 160353 509
63801 947748 525
964806 714517 525
777220 266123 509
768040 668632 504
585639 884189 525
66524 58173 335
465643 239517 449
672960 630388 442
416548 667359 509
545572 936513 525
585414 269343 470
100048 276081 443
323268 505014 449
591550 896095 525
189859 513443 470
212717 469977 449
610457 678357 509
62728 880651 525
638198 551600 509
976504 478828 525
865047 810954 525
122643 975588 525
761886 612873 509
76699 728848 509
8437 534241 470
164212 896246 525
267450 564899 470
718740 982996 525
704102 56284 509
729151 700478 504
240036 687980 509
263041 230396 443
933346 943695 507
537045 79794 470
587536 735627 509
321039 239948 407
768524 755396 468
737382 514208 509
806426 5739 509
313343 528931 470
160024 553745 470
862727 397073 525
36433 318883 443
403172 750189 509
66102 309633 443
700850 662932 442
679174 497166 509
113600 66422 354
516469 873027 525
947774 624785 525
130894 415386 449
297534 475879 449
635086 650165 416
255995 862653 525
939685 571588 525
800645 78150 509
886064 880861 370
856811 645417 525
284322 717435 509
969832 523641 525
669340 937440 525
867372 873487 432
884813 773608 525
189916 734650 509
185864 920174 525
85561 255064 443
835982 123660 509
843957 467667 525
548564 389922 470
134841 117920 344
859735 866426 388
918792 613908 525
612184 724456 509
248562 384695 441
26289 596589 470
365722 99566 443
850141 205186 525
47947 354712 443
944162 145167 525
164915 883552 525
548710 921703 525
422169 899045 525
793001 707134 468
948506 650902 525
893446 372594 525
298244 286276 389
594820 53818 470
977718 316609 525
362803 499620 449
129754 151221 375
681249 9355 509
416662 644481 509
79990 905372 525
935411 5243 525
577959 469264 470
954395 606344 525
411252 371107 449
599068 345688 470
73162 966300 525
190367 210019 373
432829 603385 470
138883 49596 354
534903 582644 452
328493 837382 509
158681 518391 470
131320 735924 509
391541 506089 449
651464 93907 509
954143 800342 525
468983 227956 449
159092 337090 443
223692 626329 470
411943 156260 449
323538 412170 449
196962 75733 383
844222 756519 525
439951 870089 525
711430 638039 504
659232 597394 509
754276 951281 525
38654 382341 443
150902 260298 443
902660 868284 445
347765 83204 443
297052 841358 525
260971 796278 509
377162 834584 509
672665 782083 504
746167 510518 509
677908 794738 504
615786 341741 470
224724 776258 509
173011 999050 525
61917 836085 509
389754 923117 525
425866 640799 509
549588 831942 509
164069 851694 525
315936 246836 407
641099 474442 509
460542 792595 509
276761 989880 525
924691 13133 525
560572 810461 509
932097 111308 525
173923 301748 443
618305 135355 470
457625 821167 509
525034 895542 525
70152 531925 470
923839 160252 525
322708 977531 525
339248 347742 441
504688 859519 525
328988 956839 525
709580 69680 509
452143 568504 470
963310 388641 525
635744 57441 509
139236 582810 470
873532 34774 525
135663 834430 509
610576 315704 470
997918 210608 525
60356 501281 449
522745 820308 509
707631 462082 509
801056 287970 509
376075 295606 441
302390 707797 509
993421 701641 525
33099 435493 449
693176 455915 509
449815 259650 449
224744 859688 525
600805 51834 470
945346 795061 525
729961 531222 509
373610 364044 392
520174 851626 525
903401 16347 525
