910130 859076 476
511400 887590 525
409903 525541 470
814400 198644 509
826725 890873 525
967888 567937 525
502148 711814 509
891843 395102 525
809508 452124 509
31625 452752 449
981832 206281 525
349161 573917 470
899112 859802 445
347767 900772 525
910697 538918 525
457832 963740 525
570471 625605 447
576549 800845 509
484987 2673 449
374737 827827 509
215636 24260 383
222664 445828 449
813156 332485 509
395672 606605 470
843899 761374 525
797481 777644 468
311320 665054 509
459964 942917 525
37501 533890 470
123622 107557 349
270252 197519 443
298095 468279 449
514942 904276 525
872631 151870 525
595541 56231 470
351959 57266 443
221258 920684 525
531003 941038 525
376848 565556 470
442996 100032 449
644785 827626 504
850919 947050 507
956609 238251 525
539492 822885 509
409733 213194 443
638852 514263 509
221527 353146 443
575042 96130 470
108052 318614 443
674950 118130 509
400992 405800 405
351434 155525 443
746836 673076 504
833562 262885 509
147859 61546 375
751125 694354 504
525502 311400 470
95011 602001 470
252365 929882 525
930025 316593 525
689489 563926 509
2487 398410 443
90379 956177 525
701666 257034 509
154341 487792 449
82147 729098 509
82180 352144 443
758517 265813 509
661845 120489 509
415588 280316 449
344768 451852 449
946782 733265 525
154929 360769 443
760402 937361 525
730356 254687 509
122355 114710 349
298143 495503 449
285868 762978 509
362710 570313 470
833751 967782 525
470650 101975 449
134568 85241 354
616542 15534 470
561092 733700 509
687756 242683 509
692084 821488 504
230333 76368 386
387444 858377 525
207951 206472 373
577298 653603 509
356983 160530 443
538522 859948 525
12469 749467 509
198184 45399 383
958333 567543 525
489624 958467 525
25719 961100 525
524237 372722 470
693246 757513 504
131198 562226 470
664271 919264 525
406501 256126 441
873498 820105 525
772630 958960 525
581711 806859 509
394670 234763 441
169125 577779 470
346187 699154 509
950268 541147 525
536435 414071 470
156253 486522 449
430129 118846 449
660228 612000 509
146768 907945 525
296743 410751 449
796203 203032 509
849876 118156 525
597722 918803 525
999614 393101 525
305891 343566 384
692923 188736 509
795313 962701 525
33032 510509 449
559294 405936 470
295090 777692 509
410974 208616 449
534843 699598 509
401042 240635 441
357530 394731 436
694957 26466 509
489893 334813 449
138340 844200 525
780187 444185 509
53075 249638 443
850839 834153 525
302359 929322 525
674398 66079 509
338326 396076 441
226869 855852 525
377159 293321 441
825612 393414 509
869913 811304 525
225814 324096 443
751685 678367 504
753786 283017 509
816394 780499 468
318154 932957 525
607403 623803 447
671480 748495 504
831086 280856 509
290077 246344 407
77368 849854 525
174587 752701 509
391304 507438 449
768649 302195 509
367246 264397 441
221589 359946 443
44576 842161 525
587262 291779 470
355763 716261 509
803989 1425 509
869510 683388 525
431242 176763 449
275478 548165 470
548843 371901 470
959516 971095 458
516841 701020 509
829794 478100 509
224954 130973 386
245693 434772 449
244854 930073 525
798153 22817 509
141900 835754 509
973086 474072 525
764917 882988 525
901030 232486 525
578907 166161 470
861759 795928 525
405489 708694 509
319569 110649 443
796806 765713 468
572119 493714 470
195888 112485 383
836408 834922 344
881995 549967 525
803552 427644 509
883944 47927 525
275672 159667 443
446762 571283 470
688765 981843 525
320891 232088 407
891422 363909 525
304130 391236 441
768565 353749 509
170845 298071 443
47567 126434 354
504584 811681 509
514122 38074 470
914064 393634 525
751411 879388 525
452190 32399 449
7423 742173 509
363936 95225 443
215800 833074 509
194933 559259 470
654615 428488 509
278107 488795 449
517620 360425 470
698710 270918 509
688827 224030 509
985765 46273 525
763222 10986 509
655561 102075 509
861084 72133 525
448517 870816 525
988337 576684 525
954606 681152 525
244410 362618 441
507864 253282 449
626915 74910 509
758378 760515 380
880176 424441 525
526962 743190 509
285484 337522 389
774051 979223 525
403517 851142 525
224903 863734 525
269195 597769 470
