244399 690305 509
561661 174530 470
487388 474708 413
201009 521540 470
379055 791384 509
746891 710956 424
17129 338856 443
782346 750424 468
248817 990462 525
264142 444015 449
182141 338647 443
697850 155710 509
717414 611948 509
712642 192337 509
761158 823311 468
394044 180934 443
136348 392907 443
364491 668550 509
3023 203334 383
51835 248441 443
889781 287989 525
20898 750433 509
11487 98194 351
595754 674613 509
937076 188115 525
504024 350906 449
634668 549153 509
334686 51520 443
218970 822368 509
847676 648903 525
433388 931290 525
88388 115201 354
188717 188268 316
772533 245705 509
968695 249599 525
652147 695478 442
877376 607478 525
257257 243803 363
271670 343451 389
836298 293859 509
154757 679044 509
300963 22959 443
686293 915299 525
433444 166557 449
266871 479179 449
456901 121797 449
171957 680516 509
696904 163710 509
436848 847088 525
834939 422351 509
80596 745180 509
479919 55269 449
828534 957148 525
370135 565188 470
664311 791060 504
732157 945773 525
807474 430382 509
99504 49853 351
892003 541965 525
810823 80167 509
631476 665469 442
800854 771548 468
204886 644593 509
426344 833918 509
579146 186740 470
644532 776298 504
694564 207781 509
558035 762887 509
509386 889350 525
787459 258552 509
287898 269814 407
95811 366819 443
277285 357386 441
38027 774917 509
224605 938368 525
971422 499577 525
274950 168702 443
502551 824597 509
730739 807868 468
919963 125848 525
848626 571285 525
562395 350294 470
973114 931707 507
777705 501731 509
559670 425181 470
923326 679204 525
661521 98155 509
140780 62487 354
190711 991058 525
625538 1763 470
428165 509177 444
11658 556357 470
297192 509269 449
852009 650965 525
515268 313407 470
416488 586490 470
771487 490879 509
444841 494393 444
969347 140623 525
744786 643002 504
602568 73154 470
863424 775134 525
383533 641921 509
202519 555129 470
694620 769484 504
868662 347204 525
466348 163034 449
776178 217247 509
305377 48146 443
429828 614738 470
415406 176098 449
830832 234167 509
970987 493730 525
896036 434935 525
129417 556964 470
492993 787103 509
20175 164910 383
855333 184199 525
935504 228657 525
459181 50590 449
937205 363236 525
979819 420878 525
886559 341362 525
72145 660620 509
578577 429927 470
502961 628396 509
314718 80880 443
853511 67842 525
221720 257428 443
692152 461793 509
655922 626666 416
982717 219308 525
777298 435796 509
52872 713344 509
308502 256592 407
81987 536926 470
877005 492367 525
408520 199503 443
290728 409422 441
28915 470638 449
665737 601570 509
897298 159364 525
435287 284767 449
913258 814034 525
576610 215169 470
630912 242783 509
792203 700784 504
846521 905634 445
273375 454440 449
448903 107460 449
971281 295499 525
377989 973342 525
913990 771061 525
485657 741242 509
932587 977796 507
641944 454717 509
440284 222 449
523749 707730 509
214644 360002 443
593777 719454 509
432940 195163 449
537237 342456 470
168942 354514 443
463136 232876 449
525974 244042 470
218027 376990 443
649602 776548 504
501647 922046 525
834320 299280 509
110170 151535 375
597964 279928 470
731584 492151 509
579801 245851 470
452315 621135 470
209943 210202 342
493373 997627 525
107368 520048 470
312932 877175 525
658040 351790 509
118504 767071 509
863473 507416 525
286297 170201 443
136681 397804 443
519995 438445 470
849069 400028 525
950840 43889 525
856865 163117 525
422954 304654 449
144075 407876 443
862313 232240 525
885698 234381 525
373234 257576 441
913795 730642 525
310091 730531 509
575405 770826 509
150645 233793 443
829808 487844 509
61235 475323 449
712062 253880 509
386309 561903 470
68708 948544 525
768483 883021 525
26667 856172 525
805424 490073 509
810019 306896 509
679068 544811 509
679682 956310 525
600485 626117 447
946341 639953 525
381709 892529 525
920755 210644 525
811569 875070 525
843390 698004 525
818886 954700 525
234565 663990 509
159279 966350 525
636574 289468 509
437752 14355 449
316469 294727 384
998447 747131 525
466516 68940 449
471933 162146 449
270788 145941 443
7680 317928 443
728611 883491 525
14045 24737 282
217022 601752 470
559197 94046 470
